%YAML 1.1
%TAG !u! tag:unity3d.com,2011:
--- !u!114 &11400000
MonoBehaviour:
  m_ObjectHideFlags: 0
  m_PrefabParentObject: {fileID: 0}
  m_PrefabInternal: {fileID: 0}
  m_GameObject: {fileID: 0}
  m_Enabled: 1
  m_EditorHideFlags: 0
  m_Script: {fileID: 11500000, guid: edae204c9acd4a4499891400ac18cec4, type: 3}
  m_Name: State_OutoftheCave
  m_EditorClassIdentifier: 
  storyText: "You go back to the mouth of the cave. Now what?\n\n1) Go into the jungle.\r\n2)
    Wade into the stream.\r\n"
  nextStates:
  - {fileID: 11400000, guid: 1f9a9dd4f8af9b546a9a3fc6a693ad69, type: 2}
  - {fileID: 11400000, guid: c29bd54143acc6342bb67e5a8440aa0b, type: 2}
  currentState:
  - {fileID: 11400000}
