%YAML 1.1
%TAG !u! tag:unity3d.com,2011:
--- !u!114 &11400000
MonoBehaviour:
  m_ObjectHideFlags: 0
  m_PrefabParentObject: {fileID: 0}
  m_PrefabInternal: {fileID: 0}
  m_GameObject: {fileID: 0}
  m_Enabled: 1
  m_EditorHideFlags: 0
  m_Script: {fileID: 11500000, guid: edae204c9acd4a4499891400ac18cec4, type: 3}
  m_Name: State_Swim
  m_EditorClassIdentifier: 
  storyText: "You try to swim against the current, but it's no use -- you are swept
    out to sea.\r\n\n1) Swim out to sea in the hope of being picked up by a boat.\r\n2)
    Try to swim back to the island.\r\n"
  nextStates:
  - {fileID: 11400000, guid: c14bc12b1aaa1744a86020aa6ec35b25, type: 2}
  - {fileID: 11400000, guid: 8dc5f6804a53c5b4eabf85450dfc2b31, type: 2}
  currentState:
  - {fileID: 11400000}
