%YAML 1.1
%TAG !u! tag:unity3d.com,2011:
--- !u!114 &11400000
MonoBehaviour:
  m_ObjectHideFlags: 0
  m_PrefabParentObject: {fileID: 0}
  m_PrefabInternal: {fileID: 0}
  m_GameObject: {fileID: 0}
  m_Enabled: 1
  m_EditorHideFlags: 0
  m_Script: {fileID: 11500000, guid: edae204c9acd4a4499891400ac18cec4, type: 3}
  m_Name: State_PickStick
  m_EditorClassIdentifier: 
  storyText: "You pick up a large stick, and hit the lizard firmly on the head. He
    grunts, then turns and shuffles away into the bushes.\n\n1) Continue on your way
    through the jungle.\r"
  nextStates:
  - {fileID: 11400000, guid: 1df976ff1f36ace4f89f070596484bb9, type: 2}
  currentState:
  - {fileID: 11400000}
